<svg width="193" height="29" viewBox="0 0 193 29" fill="none" xmlns="http://www.w3.org/2000/svg">
<path d="M103.755 15.6104C103.11 15.6104 102.535 15.8257 102.105 16.2922C101.674 16.7587 101.423 17.297 101.423 17.943C101.423 18.5889 101.638 19.1631 102.105 19.5937C102.535 20.0244 103.11 20.2756 103.755 20.2756C104.401 20.2756 104.94 20.0602 105.406 19.5937C105.873 19.1631 106.088 18.5889 106.088 17.943C106.088 17.297 105.873 16.7587 105.406 16.2922C104.94 15.8616 104.401 15.6104 103.755 15.6104Z" fill="white"/>
<path d="M100.705 0C92.8819 0 86.53 6.35185 86.53 14.175C86.53 21.9982 92.8819 28.3501 100.705 28.3501C108.528 28.3501 114.88 21.9982 114.88 14.175C114.88 6.35185 108.528 0 100.705 0ZM97.4035 23.1466C94.8556 21.4599 93.1331 18.3737 93.1331 14.8569C93.1331 9.54572 97.0088 5.23938 101.782 5.23938C104.007 5.23938 106.052 6.17242 107.595 7.71553C106.483 7.14135 105.227 6.81837 103.827 6.78248C101.495 6.85426 99.5567 7.64376 98.0136 9.22275C96.4705 10.7659 95.681 12.6678 95.5733 14.8569V18.1225C95.6092 20.0245 96.2193 21.7111 97.4035 23.1466ZM107.775 21.4958H103.827H103.791C102.822 21.4958 101.961 21.137 101.279 20.4551C100.597 19.7374 100.239 18.912 100.239 17.9431V15.0004C100.239 14.0315 100.597 13.2061 101.279 12.4884C101.961 11.7707 102.822 11.4477 103.791 11.4477C104.76 11.4477 105.586 11.8065 106.267 12.4884C106.949 13.2061 107.308 14.0315 107.308 15.0004V17.9431C107.308 18.589 107.523 19.1632 107.99 19.5938C108.026 19.6297 108.062 19.6656 108.098 19.7015C108.421 20.0963 108.492 20.8857 107.775 21.4958Z" fill="white"/>
<path d="M124.641 11.3401C123.923 11.5913 123.313 11.986 122.775 12.4884C122.237 12.9908 121.842 13.565 121.519 14.2827C121.232 15.0004 121.052 15.7899 121.052 16.6871C121.052 17.2613 121.124 17.7637 121.268 18.2302C121.411 18.6967 121.627 19.0556 121.914 19.3786C122.165 19.7015 122.488 19.9169 122.883 20.0963C123.242 20.2757 123.672 20.3475 124.103 20.3475C124.641 20.3475 125.144 20.2398 125.646 20.0245L124.856 23.3619H127.404L130.203 11.6271C129.091 11.1965 127.979 10.9453 126.938 10.9453C126.112 10.9453 125.359 11.0889 124.641 11.3401ZM127.333 13.1344L126.184 17.7996C125.933 17.9431 125.682 18.0867 125.466 18.1225C125.251 18.1943 125.036 18.2302 124.821 18.2302C124.426 18.2302 124.139 18.1226 123.923 17.8355C123.708 17.5843 123.6 17.1177 123.6 16.4718C123.6 16.0053 123.672 15.5746 123.816 15.144C123.959 14.7134 124.139 14.3545 124.39 14.0315C124.641 13.7085 124.964 13.4573 125.323 13.2779C125.682 13.0985 126.112 12.9908 126.579 12.9908C126.723 12.9908 126.83 12.9908 126.974 12.9908C127.081 13.0985 127.225 13.0985 127.333 13.1344Z" fill="white"/>
<path d="M139.749 11.1609H137.201L136.089 15.8261C136.017 16.0773 135.981 16.3644 135.909 16.6874C135.874 17.0103 135.838 17.2974 135.802 17.5845C135.551 17.8357 135.299 17.9793 135.084 18.0869C134.869 18.1946 134.618 18.2305 134.366 18.2305C134.043 18.2305 133.828 18.1587 133.684 18.0151C133.541 17.8716 133.469 17.6922 133.433 17.4769C133.397 17.2615 133.397 17.0103 133.433 16.7591C133.469 16.5079 133.505 16.2208 133.577 15.9696L134.725 11.125H132.177L131.029 16.0055C130.885 16.5438 130.849 17.0821 130.849 17.6204C130.849 18.1587 130.993 18.6252 131.172 19.02C131.388 19.4147 131.675 19.7377 132.106 19.9889C132.536 20.2401 133.074 20.3477 133.756 20.3477C134.259 20.3477 134.689 20.276 135.084 20.0965C135.479 19.9171 135.838 19.7018 136.161 19.4506C136.268 19.7736 136.412 20.0248 136.52 20.276L138.816 19.953C138.637 19.4506 138.493 18.8405 138.421 18.1946C138.35 17.5486 138.386 16.8668 138.565 16.2208L139.749 11.1609Z" fill="white"/>
<path d="M149.438 11.6274C149.115 11.4838 148.757 11.3403 148.398 11.2326C148.039 11.125 147.68 11.0891 147.357 11.0532C147.034 11.0173 146.747 10.9814 146.46 10.9814C146.209 10.9814 146.029 10.9814 145.922 10.9814C145.132 10.9814 144.414 11.125 143.733 11.4121C143.051 11.6992 142.477 12.1298 141.974 12.6322C141.472 13.1705 141.077 13.7447 140.826 14.4624C140.539 15.1442 140.395 15.8978 140.395 16.6873C140.395 17.1898 140.467 17.6922 140.575 18.1228C140.682 18.5893 140.862 18.9841 141.149 19.307C141.4 19.63 141.723 19.9171 142.154 20.0965C142.548 20.3118 143.051 20.3836 143.625 20.3836C144.091 20.3836 144.522 20.3118 144.917 20.1324C145.312 19.953 145.67 19.7377 145.993 19.4865C146.065 19.63 146.101 19.7736 146.173 19.9171C146.245 20.0606 146.28 20.1683 146.352 20.3118L148.649 19.9889C148.47 19.4865 148.326 18.8764 148.254 18.2304C148.182 17.5845 148.218 16.9027 148.398 16.2567L149.438 11.6274ZM145.886 15.8261C145.814 16.0773 145.778 16.3644 145.706 16.6873C145.67 17.0103 145.635 17.2974 145.599 17.5845C145.347 17.8357 145.132 17.9792 144.917 18.0869C144.701 18.1946 144.45 18.2304 144.199 18.2304C143.697 18.2304 143.374 18.0869 143.194 17.7639C143.015 17.441 142.907 17.0103 142.907 16.472C142.907 16.0414 142.979 15.6108 143.122 15.1801C143.266 14.7854 143.445 14.3906 143.697 14.1035C143.948 13.7806 144.235 13.5294 144.594 13.3499C144.917 13.1705 145.312 13.0628 145.67 13.0628C145.85 13.0628 145.993 13.0628 146.101 13.0628C146.209 13.0628 146.352 13.0987 146.496 13.0987L145.886 15.8261Z" fill="white"/>
<path d="M152.884 17.7639C152.812 17.6203 152.776 17.4768 152.776 17.2974C152.776 17.1179 152.812 16.9385 152.848 16.7232L155.216 6.85449L152.561 7.24924L150.372 16.3643C150.228 16.9026 150.192 17.405 150.192 17.8715C150.192 18.3381 150.3 18.7687 150.479 19.1276C150.695 19.4864 151.018 19.7735 151.484 19.9888C151.951 20.2041 152.597 20.3118 153.386 20.3118L153.888 18.1945C153.601 18.1586 153.35 18.1227 153.207 18.051C153.063 18.0151 152.955 17.9074 152.884 17.7639Z" fill="white"/>
<path d="M159.558 7.35618C159.271 7.14086 158.948 7.0332 158.589 7.0332C158.338 7.0332 158.123 7.06909 157.908 7.17675C157.692 7.2844 157.513 7.39206 157.333 7.53561C157.19 7.67915 157.046 7.85858 156.939 8.0739C156.831 8.28922 156.795 8.50453 156.795 8.75573C156.795 9.18637 156.939 9.50935 157.226 9.72467C157.513 9.93998 157.836 10.0476 158.195 10.0476C158.446 10.0476 158.661 10.0118 158.877 9.9041C159.092 9.79644 159.271 9.68878 159.451 9.54523C159.594 9.40169 159.738 9.22226 159.845 9.00694C159.953 8.79163 159.989 8.57631 159.989 8.32511C159.989 7.89447 159.845 7.57149 159.558 7.35618Z" fill="white"/>
<path d="M164.69 8.50488L162.035 8.89962L160.348 16.0051C160.204 16.5793 160.133 17.1534 160.097 17.6559C160.061 18.1941 160.168 18.6607 160.348 19.0554C160.527 19.4502 160.85 19.7731 161.281 20.0243C161.712 20.2755 162.322 20.3832 163.111 20.3832C163.649 20.3832 164.152 20.3473 164.547 20.2397C164.941 20.132 165.336 20.0243 165.659 19.9167L165.48 17.9429C165.228 18.0506 164.941 18.1224 164.69 18.1583C164.439 18.1941 164.152 18.23 163.901 18.23C163.578 18.23 163.326 18.1941 163.147 18.0865C162.968 17.9788 162.824 17.8712 162.752 17.6917C162.68 17.5123 162.645 17.3329 162.68 17.1176C162.68 16.9022 162.752 16.651 162.824 16.364L163.578 13.206H166.413L166.915 11.1246H164.044L164.69 8.50488Z" fill="white"/>
<path d="M176.245 11.6274C175.922 11.4838 175.564 11.3403 175.205 11.2326C174.846 11.125 174.487 11.0891 174.164 11.0532C173.841 11.0173 173.554 10.9814 173.267 10.9814C173.016 10.9814 172.836 10.9814 172.729 10.9814C171.939 10.9814 171.221 11.125 170.54 11.4121C169.858 11.6992 169.283 12.1298 168.781 12.6322C168.279 13.1705 167.884 13.7447 167.633 14.4624C167.346 15.1442 167.202 15.8978 167.202 16.6873C167.202 17.1898 167.274 17.6922 167.382 18.1228C167.489 18.5893 167.669 18.9841 167.956 19.307C168.207 19.63 168.53 19.9171 168.961 20.0965C169.355 20.3118 169.858 20.3836 170.432 20.3836C170.898 20.3836 171.329 20.3118 171.724 20.1324C172.118 19.953 172.477 19.7377 172.8 19.4865C172.872 19.63 172.908 19.7736 172.98 19.9171C173.052 20.0606 173.087 20.1683 173.159 20.3118L175.456 19.9889C175.276 19.4865 175.133 18.8764 175.061 18.2304C174.989 17.5845 175.025 16.9027 175.205 16.2567L176.245 11.6274ZM172.693 15.8261C172.621 16.0773 172.585 16.3644 172.513 16.6873C172.477 17.0103 172.441 17.2974 172.406 17.5845C172.154 17.8357 171.939 17.9792 171.724 18.0869C171.508 18.1946 171.257 18.2304 171.006 18.2304C170.504 18.2304 170.181 18.0869 170.001 17.7639C169.822 17.441 169.714 17.0103 169.714 16.472C169.714 16.0414 169.786 15.6108 169.929 15.1801C170.073 14.7854 170.252 14.3906 170.504 14.1035C170.755 13.7806 171.042 13.5294 171.401 13.3499C171.724 13.1705 172.118 13.0628 172.477 13.0628C172.657 13.0628 172.8 13.0628 172.908 13.0628C173.016 13.0628 173.159 13.0987 173.303 13.0987L172.693 15.8261Z" fill="white"/>
<path d="M183.459 11.0532C183.1 11.0173 182.777 10.9814 182.49 10.9814C181.736 10.9814 181.018 11.0532 180.408 11.1968C179.798 11.3403 179.26 11.4838 178.757 11.6633L176.712 20.2042H179.26L180.911 13.2782C181.054 13.2423 181.198 13.2064 181.377 13.1705C181.557 13.1346 181.736 13.1346 181.915 13.1346C182.346 13.1346 182.669 13.1705 182.884 13.2064C183.1 13.2423 183.315 13.314 183.566 13.3858L184.32 11.3403C184.14 11.1609 183.817 11.0891 183.459 11.0532Z" fill="white"/>
<path d="M192.358 12.3805C192.215 12.0575 191.999 11.8063 191.748 11.591C191.497 11.3757 191.174 11.1963 190.851 11.0886C190.492 10.981 190.133 10.9092 189.739 10.9092C188.913 10.9092 188.196 11.0886 187.514 11.4116C186.832 11.7346 186.294 12.1652 185.791 12.7035C185.325 13.2418 184.966 13.8518 184.715 14.5337C184.463 15.2155 184.32 15.9332 184.32 16.651C184.32 17.1534 184.392 17.6558 184.535 18.1223C184.679 18.5888 184.894 18.9836 185.181 19.3065C185.468 19.6654 185.863 19.9166 186.365 20.1319C186.868 20.3472 187.442 20.419 188.16 20.419C188.734 20.419 189.272 20.3831 189.775 20.2755C190.277 20.1678 190.672 20.0602 190.995 19.9166L190.815 17.907C190.492 18.0505 190.133 18.1223 189.739 18.1941C189.344 18.2659 188.985 18.3017 188.626 18.3017C188.052 18.3017 187.621 18.1941 187.334 18.0146C187.083 17.7993 186.904 17.4763 186.796 17.0098C187.621 17.0098 188.375 16.9381 189.093 16.8304C189.775 16.7227 190.385 16.5074 190.887 16.2203C191.389 15.9332 191.784 15.5744 192.071 15.1438C192.358 14.7131 192.502 14.1389 192.502 13.5289C192.574 13.0624 192.502 12.7035 192.358 12.3805ZM190.133 14.2466C190.062 14.3901 189.882 14.5696 189.667 14.6772C189.416 14.8208 189.093 14.9284 188.662 15.0361C188.231 15.1437 187.657 15.1796 186.94 15.2155C187.083 14.5337 187.37 13.9954 187.801 13.5648C188.231 13.1341 188.77 12.9547 189.344 12.9547C189.954 12.9547 190.277 13.2418 190.277 13.7801C190.241 13.9236 190.205 14.0672 190.133 14.2466Z" fill="white"/>
<path d="M159.128 11.1963H156.58L155.324 16.3998C155.18 16.9381 155.144 17.4405 155.144 17.907C155.144 18.3735 155.252 18.8041 155.431 19.163C155.647 19.5219 155.97 19.809 156.436 20.0243C156.903 20.2396 157.549 20.3473 158.338 20.3473L158.841 18.23C158.554 18.1941 158.302 18.1582 158.159 18.0864C157.979 18.0147 157.872 17.907 157.8 17.7635C157.728 17.6199 157.692 17.4764 157.692 17.2969C157.692 17.1175 157.728 16.9381 157.764 16.7228L159.128 11.1963Z" fill="white"/>
<path d="M1.4 12.4179V15.8339H6.314V17.0379H1.4V20.9999H0V11.1999H6.916V12.4179H1.4Z" fill="white"/>
<path d="M15.9987 19.7819V20.9999H8.88672V11.1999H15.8027V12.4179H10.2867V15.4279H15.2007V16.6179H10.2867V19.7819H15.9987Z" fill="white"/>
<path d="M18.2656 11.1999H19.6656V20.9999H18.2656V11.1999Z" fill="white"/>
<path d="M24.5456 12.4179H21.1856V11.1999H29.2916V12.4179H25.9316V20.9999H24.5456V12.4179Z" fill="white"/>
<path d="M35.1037 21.1119C34.1144 21.1119 33.223 20.8972 32.4297 20.4679C31.6364 20.0292 31.011 19.4272 30.5537 18.6619C30.1057 17.8966 29.8817 17.0426 29.8817 16.0999C29.8817 15.1572 30.1057 14.3032 30.5537 13.5379C31.011 12.7726 31.6364 12.1752 32.4297 11.7459C33.223 11.3072 34.1144 11.0879 35.1037 11.0879C36.0837 11.0879 36.9704 11.3072 37.7637 11.7459C38.557 12.1752 39.1777 12.7726 39.6257 13.5379C40.0737 14.2939 40.2977 15.1479 40.2977 16.0999C40.2977 17.0519 40.0737 17.9106 39.6257 18.6759C39.1777 19.4319 38.557 20.0292 37.7637 20.4679C36.9704 20.8972 36.0837 21.1119 35.1037 21.1119ZM35.1037 19.8659C35.8224 19.8659 36.4664 19.7026 37.0357 19.3759C37.6144 19.0492 38.067 18.6012 38.3937 18.0319C38.7297 17.4532 38.8977 16.8092 38.8977 16.0999C38.8977 15.3906 38.7297 14.7512 38.3937 14.1819C38.067 13.6032 37.6144 13.1506 37.0357 12.8239C36.4664 12.4972 35.8224 12.3339 35.1037 12.3339C34.385 12.3339 33.7317 12.4972 33.1437 12.8239C32.565 13.1506 32.1077 13.6032 31.7717 14.1819C31.445 14.7512 31.2817 15.3906 31.2817 16.0999C31.2817 16.8092 31.445 17.4532 31.7717 18.0319C32.1077 18.6012 32.565 19.0492 33.1437 19.3759C33.7317 19.7026 34.385 19.8659 35.1037 19.8659Z" fill="white"/>
<path d="M50.5793 21.1119C49.5993 21.1119 48.7126 20.8972 47.9193 20.4679C47.1353 20.0292 46.5193 19.4319 46.0713 18.6759C45.6233 17.9106 45.3993 17.0519 45.3993 16.0999C45.3993 15.1479 45.6233 14.2939 46.0713 13.5379C46.5193 12.7726 47.1399 12.1752 47.9333 11.7459C48.7266 11.3072 49.6133 11.0879 50.5933 11.0879C51.3586 11.0879 52.0586 11.2186 52.6933 11.4799C53.3279 11.7319 53.8693 12.1099 54.3173 12.6139L53.4073 13.4959C52.6699 12.7212 51.7506 12.3339 50.6493 12.3339C49.9213 12.3339 49.2633 12.4972 48.6753 12.8239C48.0873 13.1506 47.6253 13.6032 47.2893 14.1819C46.9626 14.7512 46.7993 15.3906 46.7993 16.0999C46.7993 16.8092 46.9626 17.4532 47.2893 18.0319C47.6253 18.6012 48.0873 19.0492 48.6753 19.3759C49.2633 19.7026 49.9213 19.8659 50.6493 19.8659C51.7413 19.8659 52.6606 19.4739 53.4073 18.6899L54.3173 19.5719C53.8693 20.0759 53.3233 20.4586 52.6793 20.7199C52.0446 20.9812 51.3446 21.1119 50.5793 21.1119Z" fill="white"/>
<path d="M60.5334 21.1119C59.544 21.1119 58.6527 20.8972 57.8594 20.4679C57.066 20.0292 56.4407 19.4272 55.9834 18.6619C55.5354 17.8966 55.3114 17.0426 55.3114 16.0999C55.3114 15.1572 55.5354 14.3032 55.9834 13.5379C56.4407 12.7726 57.066 12.1752 57.8594 11.7459C58.6527 11.3072 59.544 11.0879 60.5334 11.0879C61.5134 11.0879 62.4 11.3072 63.1934 11.7459C63.9867 12.1752 64.6074 12.7726 65.0554 13.5379C65.5034 14.2939 65.7274 15.1479 65.7274 16.0999C65.7274 17.0519 65.5034 17.9106 65.0554 18.6759C64.6074 19.4319 63.9867 20.0292 63.1934 20.4679C62.4 20.8972 61.5134 21.1119 60.5334 21.1119ZM60.5334 19.8659C61.252 19.8659 61.896 19.7026 62.4654 19.3759C63.044 19.0492 63.4967 18.6012 63.8234 18.0319C64.1594 17.4532 64.3274 16.8092 64.3274 16.0999C64.3274 15.3906 64.1594 14.7512 63.8234 14.1819C63.4967 13.6032 63.044 13.1506 62.4654 12.8239C61.896 12.4972 61.252 12.3339 60.5334 12.3339C59.8147 12.3339 59.1614 12.4972 58.5734 12.8239C57.9947 13.1506 57.5374 13.6032 57.2014 14.1819C56.8747 14.7512 56.7114 15.3906 56.7114 16.0999C56.7114 16.8092 56.8747 17.4532 57.2014 18.0319C57.5374 18.6012 57.9947 19.0492 58.5734 19.3759C59.1614 19.7026 59.8147 19.8659 60.5334 19.8659Z" fill="white"/>
<path d="M76.9532 20.9999L76.9392 13.8599L73.3972 19.8099H72.7532L69.2112 13.9019V20.9999H67.8672V11.1999H69.0152L73.1032 18.0879L77.1352 11.1999H78.2832L78.2972 20.9999H76.9532Z" fill="white"/>
</svg>
