<?xml version="1.0" encoding="utf-8"?>
<!-- Generator: Adobe Illustrator 24.0.1, SVG Export Plug-In . SVG Version: 6.00 Build 0)  -->
<svg version="1.1" id="Camada_1" xmlns="http://www.w3.org/2000/svg" xmlns:xlink="http://www.w3.org/1999/xlink" x="0px" y="0px"
	 viewBox="0 0 339.9 316" style="enable-background:new 0 0 339.9 316;" xml:space="preserve">
<path class="st0" style="fill:#C03834;" d="M219.1,102.5C207.4,51.7,177.2,0,164.5,0c-13.4,0-40.1,56.2-48.7,107.5c-51.7,7.4-118,44.4-115.2,59
	c2.6,13.5,64,44.1,116,48.4c13.8,46.7,43.7,102.9,56.2,100.9c11.7-1.8,41.5-55.1,49.6-102.3c56.7-9.3,119.4-41.3,117.3-62.9
	C337.8,129.7,274,106.4,219.1,102.5z"/>
</svg>
