<svg width="181" height="33" viewBox="0 0 181 33" fill="none" xmlns="http://www.w3.org/2000/svg">
<path d="M5.60346 1.02344H0V31.4409H5.60346V1.02344Z" fill="#D7D8D8"/>
<path d="M28.1541 31.4409H22.8062V19.0111C22.8062 15.9264 21.3643 14.4023 18.5169 14.4023C15.6695 14.4023 13.6344 16.9668 13.6344 20.4895V31.4409H8.27734V9.88489H13.6253V13.362C15.3684 10.6241 17.7412 9.27344 20.7619 9.27344C25.3068 9.27344 28.1541 12.2759 28.1541 16.7478V31.4409Z" fill="#D7D8D8"/>
<path d="M40.4286 18.2262C45.3567 19.3122 47.474 21.2287 47.474 24.8792C47.474 26.9234 46.7074 28.6574 45.1833 30.0081C43.6957 31.3588 41.6606 32.0523 39.1509 32.0523C34.2684 32.0523 31.0834 29.4058 29.5137 25.5728L33.803 22.7893C34.7795 25.6184 36.6503 27.4436 39.2422 27.4436C40.9853 27.4436 42.555 26.4854 42.555 25.0526C42.555 23.6198 41.2864 22.9262 38.0558 22.2691C33.6387 21.4021 30.7092 19.1845 30.7092 15.534C30.7092 13.581 31.4758 12.0569 32.9999 10.9709C34.5331 9.83926 36.3948 9.27344 38.5668 9.27344C43.0295 9.27344 45.5301 11.0074 47.2732 14.7035L43.4128 17.0489C42.4363 14.5301 40.821 13.2707 38.6581 13.2707C36.5317 13.2707 35.4731 13.9187 35.4731 15.1872C35.4548 16.5379 37.1158 17.5782 40.4286 18.2262Z" fill="#D7D8D8"/>
<path d="M48.5332 14.3203V9.88499H51.8004V4.0625H57.1483V9.88499H61.7388V14.3203H57.1483V24.1401C57.1483 26.1843 58.0427 27.1791 59.8223 27.1791C60.4611 27.1791 61.0543 27.0878 61.6019 26.9144L62.1129 31.4319C61.0087 31.8243 59.8223 32.0433 58.5446 32.0433C54.0454 32.0433 51.7912 29.7435 51.7912 25.1804V14.3203H48.5332Z" fill="#D7D8D8"/>
<path d="M63.7559 1.02344H69.6149V6.7638H63.7559V1.02344ZM64.0114 9.88494H69.3593V31.4409H64.0114V9.88494Z" fill="#D7D8D8"/>
<path d="M70.9922 14.3203V9.88499H74.2594V4.0625H79.6073V9.88499H84.1977V14.3203H79.6073V24.1401C79.6073 26.1843 80.5017 27.1791 82.2813 27.1791C82.9201 27.1791 83.5133 27.0878 84.0609 26.9144L84.5719 31.4319C83.4677 31.8243 82.2813 32.0433 81.0036 32.0433C76.5044 32.0433 74.2502 29.7435 74.2502 25.1804V14.3203H70.9922Z" fill="#D7D8D8"/>
<path d="M86.1504 9.88501H91.4983V22.0137C91.4983 25.2717 92.9403 26.9236 95.7876 26.9236C98.7171 26.9236 100.67 24.4869 100.67 21.0098V9.88501H106.018V31.441H100.67V28.0461C99.2282 30.7018 96.974 32.0433 93.9624 32.0433C89.3719 32.0433 86.1504 28.8309 86.1504 23.264V9.88501Z" fill="#D7D8D8"/>
<path d="M107.826 14.3203V9.88499H111.093V4.0625H116.441V9.88499H121.032V14.3203H116.441V24.1401C116.441 26.1843 117.336 27.1791 119.115 27.1791C119.754 27.1791 120.347 27.0878 120.895 26.9144L121.406 31.4319C120.302 31.8243 119.115 32.0433 117.838 32.0433C113.338 32.0433 111.084 29.7435 111.084 25.1804V14.3203H107.826Z" fill="#D7D8D8"/>
<path d="M144.759 20.663C144.759 24.2222 143.609 27.0057 141.319 29.05C139.065 31.0486 136.354 32.0525 133.206 32.0525C130.103 32.0525 127.383 31.0486 125.138 29.05C122.884 27.0057 121.743 24.2222 121.743 20.663C121.743 17.1038 122.893 14.3204 125.138 12.3217C127.392 10.2775 130.103 9.28271 133.206 9.28271C136.345 9.28271 139.065 10.2866 141.319 12.3217C143.609 14.3204 144.759 17.1038 144.759 20.663ZM133.206 26.9236C134.857 26.9236 136.309 26.3578 137.495 25.2261C138.727 24.0489 139.32 22.5339 139.32 20.663C139.32 18.7922 138.727 17.2772 137.495 16.1456C136.309 14.9683 134.867 14.4116 133.206 14.4116C131.554 14.4116 130.148 14.9774 128.962 16.1456C127.776 17.2772 127.182 18.7922 127.182 20.663C127.182 22.5339 127.776 24.0489 128.962 25.2261C130.148 26.3578 131.554 26.9236 133.206 26.9236Z" fill="#D7D8D8"/>
<path d="M180.925 31.1398L172.931 15.9995C172.821 15.7987 172.621 15.671 172.392 15.671H170.385L179.648 1.30639C179.776 1.11474 179.785 0.868336 179.675 0.66756C179.575 0.475911 179.374 0.348145 179.146 0.348145H173.004C172.803 0.348145 172.612 0.457659 172.493 0.631056L163.65 14.3477V1.02348C163.65 0.676686 163.376 0.402902 163.038 0.402902H157.435C157.097 0.402902 156.823 0.685813 156.823 1.02348V31.441C156.823 31.7878 157.097 32.0616 157.435 32.0616H163.038C163.376 32.0616 163.65 31.7787 163.65 31.441V16.9304H165.895L173.716 31.7422C173.825 31.9429 174.026 32.0707 174.254 32.0707H180.396C180.615 32.0707 180.807 31.9521 180.916 31.7695C181.026 31.5688 181.026 31.3406 180.925 31.1398ZM162.427 30.8204H158.037V1.64406H162.427V30.8204ZM173.323 1.5893H178.014L168.934 15.6801H166.26H164.252L173.323 1.5893ZM174.61 30.8204L167.273 16.9304H169.262H172.037L179.365 30.8204H174.61Z" fill="#D7D8D8"/>
</svg>
