<svg width="146" height="146" viewBox="0 0 146 146" fill="none" xmlns="http://www.w3.org/2000/svg">
<circle cx="73" cy="73" r="70" stroke="#D7D8D8" stroke-width="6"/>
<path d="M106 72.5L57.25 100.646L57.25 44.3542L106 72.5Z" stroke="#D7D8D8" stroke-width="6"/>
</svg>